[{
	"asi_nombre": "CALCULO VECTORIAL",
	"cur_codigo": "133945",
	"asi_creditos": "3",
	"reportes": [{
		"cue_nombre": "Corte 01",
		"cue_porcentaje": 30,
		"cun_nota": 2.0,
		"cun_observacion": ""
	}],
	"definitiva": 0.6
}, {
	"asi_nombre": "ELECTIVA INGENIERIA APLICADA V (INGENIERIA DE SOFTWARE)",
	"cur_codigo": "134633",
	"asi_creditos": "3",
	"reportes": [],
	"definitiva": 0.0
}, {
	"asi_nombre": "PROFUNDIZACION III",
	"cur_codigo": "134629",
	"asi_creditos": "3",
	"reportes": [],
	"definitiva": 0.0
}, {
	"asi_nombre": "DIBUJO DE INGENIERIA",
	"cur_codigo": "133968",
	"asi_creditos": "2",
	"reportes": [{
		"cue_nombre": "Corte 01",
		"cue_porcentaje": 35,
		"cun_nota": 3.4,
		"cun_observacion": "Faltó a algunas clases"
	}, {
		"cue_nombre": "Corte 02",
		"cue_porcentaje": 30,
		"cun_nota": 1.5,
		"cun_observacion": "Pendiente"
	}, {
		"cue_nombre": "Corte 03",
		"cue_porcentaje": 35,
		"cun_nota": 3.9,
		"cun_observacion": "Perdió por bitch"


	}],
	"definitiva": 3.0
}, {
	"asi_nombre": "BIOLOGIA GENERAL",
	"cur_codigo": "134152",
	"asi_creditos": "3",
	"reportes": [{
		"cue_nombre": "Corte 01",
		"cue_porcentaje": 35,
		"cun_nota": 2.0,
		"cun_observacion": ""
	}, {
		"cue_nombre": "Corte 02",
		"cue_porcentaje": 35,
		"cun_nota": 3.2,
		"cun_observacion": ""
	}, {
		"cue_nombre": "Corte 03",
		"cue_porcentaje": 30,
		"cun_nota": 3.4,
		"cun_observacion": "fasfsdaf por bitch"
	}],
	"definitiva": 2.8
}, {
	"asi_nombre": "ELECTIVA INGENIERIA APLICADA II (INGLES, CIENCIAS DE LA COMPUTACION)",
	"cur_codigo": "133827",
	"asi_creditos": "4",
	"reportes": [],
	"definitiva": 0.0
}]